Chronologic VCS simulator copyright 1991-2011
Contains Synopsys proprietary information.
Compiler version E-2011.03_Full64; Runtime version E-2011.03_Full64;  Oct 18 20:30 2013
bran_v:xxxxxxxxxxxxxxxxxxxxxxxxxxxxxx00 bran_pred_ornot:xxxxxxxxxxxxxxxxxxxxxxxxxxxxxx00 head: 0 tail: 2 full:0
bran_v:xxxxxxxxxxxxxxxxxxxxxxxxxxxx1100 bran_pred_ornot:xxxxxxxxxxxxxxxxxxxxxxxxxxxx0000 head: 0 tail: 4 full:0
bran_v:xxxxxxxxxxxxxxxxxxxxxxxxxx111100 bran_pred_ornot:xxxxxxxxxxxxxxxxxxxxxxxxxx000000 head: 0 tail: 6 full:0
bran_v:xxxxxxxxxxxxxxxxxxxxxxxx11111100 bran_pred_ornot:xxxxxxxxxxxxxxxxxxxxxxxx00000000 head: 0 tail: 8 full:0
bran_v:xxxxxxxxxxxxxxxxxxxxxx1111111100 bran_pred_ornot:xxxxxxxxxxxxxxxxxxxxxx0000000000 head: 0 tail:10 full:0
bran_v:xxxxxxxxxxxxxxxxxxxx111111111100 bran_pred_ornot:xxxxxxxxxxxxxxxxxxxx000000000000 head: 0 tail:12 full:0
bran_v:xxxxxxxxxxxxxxxxxx11111111111100 bran_pred_ornot:xxxxxxxxxxxxxxxxxx00000000000000 head: 0 tail:14 full:0
bran_v:xxxxxxxxxxxxxxxx1111111111111100 bran_pred_ornot:xxxxxxxxxxxxxxxx0000000000000000 head: 0 tail:16 full:0
bran_v:xxxxxxxxxxxxxx111111111111111100 bran_pred_ornot:xxxxxxxxxxxxxx000000000000000000 head: 0 tail:18 full:0
bran_v:xxxxxxxxxxxx11111111111111111100 bran_pred_ornot:xxxxxxxxxxxx00000000000000000000 head: 0 tail:20 full:0
bran_v:xxxxxxxxxx1111111111111111111100 bran_pred_ornot:xxxxxxxxxx0000000000000000000000 head: 0 tail:22 full:0
bran_v:xxxxxxxx111111111111111111111100 bran_pred_ornot:xxxxxxxx000000000000000000000000 head: 0 tail:24 full:0
bran_v:xxxxxx11111111111111111111111100 bran_pred_ornot:xxxxxx00000000000000000000000000 head: 0 tail:26 full:0
bran_v:xxxx1111111111111111111111111100 bran_pred_ornot:xxxx0000000000000000000000000000 head: 0 tail:28 full:0
bran_v:xx111111111111111111111111111100 bran_pred_ornot:xx000000000000000000000000000000 head: 0 tail:30 full:0
result after allocation
bran_v:11111111111111111111111111111111 bran_pred_ornot:00000000000000000000000000000000 head: 0 tail: 2 full:1
bran_ornot_regfl:11xxxxxxxxxxxxxxxxxxxxxxxxxxxxxx ret1_branornot:x bran1_miss:0 ret2_branornot:x bran2_miss:0 head: 0 tail: 4
bran_ornot_regfl:1100xxxxxxxxxxxxxxxxxxxxxxxxxxxx ret1_branornot:x bran1_miss:0 ret2_branornot:x bran2_miss:0 head: 0 tail: 8
bran_ornot_regfl:110011xxxxxxxxxxxxxxxxxxxxxxxxxx ret1_branornot:x bran1_miss:0 ret2_branornot:x bran2_miss:0 head: 0 tail:12
bran_ornot_regfl:11001100xxxxxxxxxxxxxxxxxxxxxxxx ret1_branornot:x bran1_miss:0 ret2_branornot:x bran2_miss:0 head: 0 tail:16
bran_ornot_regfl:1100110011xxxxxxxxxxxxxxxxxxxxxx ret1_branornot:x bran1_miss:0 ret2_branornot:x bran2_miss:0 head: 0 tail:20
bran_ornot_regfl:110011001100xxxxxxxxxxxxxxxxxxxx ret1_branornot:x bran1_miss:0 ret2_branornot:x bran2_miss:0 head: 0 tail:24
bran_ornot_regfl:11001100110011xxxxxxxxxxxxxxxxxx ret1_branornot:x bran1_miss:0 ret2_branornot:x bran2_miss:0 head: 0 tail:28
bran_ornot_regfl:1100110011001100xxxxxxxxxxxxxxxx ret1_branornot:x bran1_miss:0 ret2_branornot:x bran2_miss:0 head: 0 tail: 0
bran_ornot_regfl:110011001100110011xxxxxxxxxxxxxx ret1_branornot:x bran1_miss:0 ret2_branornot:x bran2_miss:0 head: 0 tail: 4
bran_ornot_regfl:11001100110011001100xxxxxxxxxxxx ret1_branornot:x bran1_miss:0 ret2_branornot:x bran2_miss:0 head: 0 tail: 8
bran_ornot_regfl:1100110011001100110011xxxxxxxxxx ret1_branornot:x bran1_miss:0 ret2_branornot:x bran2_miss:0 head: 0 tail:12
bran_ornot_regfl:110011001100110011001100xxxxxxxx ret1_branornot:x bran1_miss:0 ret2_branornot:x bran2_miss:0 head: 0 tail:16
bran_ornot_regfl:11001100110011001100110011xxxxxx ret1_branornot:x bran1_miss:0 ret2_branornot:x bran2_miss:0 head: 0 tail:20
bran_ornot_regfl:1100110011001100110011001100xxxx ret1_branornot:x bran1_miss:0 ret2_branornot:x bran2_miss:0 head: 0 tail:24
bran_ornot_regfl:110011001100110011001100110011xx ret1_branornot:x bran1_miss:0 ret2_branornot:x bran2_miss:0 head: 0 tail:28
bran_ornot_regfl:11001100110011001100110011001100 ret1_branornot:x bran1_miss:0 ret2_branornot:x bran2_miss:0 head: 0 tail: 0
finish execute
bran_ornot_regfl:11001100110011001100110011001100 ret1_branornot:x bran1_miss:0 ret2_branornot:x bran2_miss:0 head: 0 tail: 0
bran_ornot_regfl:11001100110011001100110011001100 ret1_branornot:x bran1_miss:0 ret2_branornot:x bran2_miss:0 head: 0 tail: 0
bran_ornot_regfl:11001100110011001100110011001100 ret1_branornot:x bran1_miss:0 ret2_branornot:x bran2_miss:0 head: 0 tail: 0
bran_ornot_regfl:11001100110011001100110011001100 ret1_branornot:x bran1_miss:0 ret2_branornot:x bran2_miss:0 head: 0 tail: 0
bran_ornot_regfl:11001100110011001100110011001100 ret1_branornot:x bran1_miss:0 ret2_branornot:x bran2_miss:0 head: 0 tail: 0
bran_ornot_regfl:11001100110011001100110011001100 ret1_branornot:x bran1_miss:0 ret2_branornot:x bran2_miss:0 head: 0 tail: 0
bran_ornot_regfl:11001100110011001100110011001100 ret1_branornot:x bran1_miss:0 ret2_branornot:x bran2_miss:0 head: 0 tail: 0
bran_ornot_regfl:11001100110011001100110011001100 ret1_branornot:x bran1_miss:0 ret2_branornot:x bran2_miss:0 head: 0 tail: 0
bran_ornot_regfl:11001100110011001100110011001100 ret1_branornot:x bran1_miss:0 ret2_branornot:x bran2_miss:0 head: 0 tail: 0
bran_ornot_regfl:11001100110011001100110011001100 ret1_branornot:x bran1_miss:0 ret2_branornot:x bran2_miss:0 head: 0 tail: 0
bran_ornot_regfl:11001100110011001100110011001100 ret1_branornot:x bran1_miss:0 ret2_branornot:x bran2_miss:0 head: 0 tail: 0
bran_ornot_regfl:11001100110011001100110011001100 ret1_branornot:x bran1_miss:0 ret2_branornot:x bran2_miss:0 head: 0 tail: 0
bran_ornot_regfl:11001100110011001100110011001100 ret1_branornot:x bran1_miss:0 ret2_branornot:x bran2_miss:0 head: 0 tail: 0
bran_ornot_regfl:11001100110011001100110011001100 ret1_branornot:x bran1_miss:0 ret2_branornot:x bran2_miss:0 head: 0 tail: 0
bran_ornot_regfl:11001100110011001100110011001100 ret1_branornot:x bran1_miss:0 ret2_branornot:x bran2_miss:0 head: 0 tail: 0
bran_ornot_regfl:11001100110011001100110011001100 ret1_branornot:x bran1_miss:0 ret2_branornot:x bran2_miss:0 head: 0 tail: 0
bran_ornot_regfl:11001100110011001100110011001100 ret1_branornot:x bran1_miss:0 ret2_branornot:x bran2_miss:0 head: 0 tail: 0
bran_ornot_regfl:11001100110011001100110011001100 ret1_branornot:x bran1_miss:0 ret2_branornot:x bran2_miss:0 head: 0 tail: 0
bran_ornot_regfl:11001100110011001100110011001100 ret1_branornot:x bran1_miss:0 ret2_branornot:x bran2_miss:0 head: 0 tail: 0
bran_ornot_regfl:11001100110011001100110011001100 ret1_branornot:x bran1_miss:0 ret2_branornot:x bran2_miss:0 head: 0 tail: 0
bran_ornot_regfl:11001100110011001100110011001100 ret1_branornot:x bran1_miss:0 ret2_branornot:x bran2_miss:0 head: 0 tail: 0
bran_ornot_regfl:11001100110011001100110011001100 ret1_branornot:x bran1_miss:0 ret2_branornot:x bran2_miss:0 head: 0 tail: 0
bran_ornot_regfl:11001100110011001100110011001100 ret1_branornot:x bran1_miss:0 ret2_branornot:x bran2_miss:0 head: 0 tail: 0
bran_ornot_regfl:11001100110011001100110011001100 ret1_branornot:x bran1_miss:0 ret2_branornot:x bran2_miss:0 head: 0 tail: 0
bran_ornot_regfl:11001100110011001100110011001100 ret1_branornot:x bran1_miss:0 ret2_branornot:x bran2_miss:0 head: 0 tail: 0
bran_ornot_regfl:11001100110011001100110011001100 ret1_branornot:x bran1_miss:0 ret2_branornot:x bran2_miss:0 head: 0 tail: 0
bran_ornot_regfl:11001100110011001100110011001100 ret1_branornot:x bran1_miss:0 ret2_branornot:x bran2_miss:0 head: 0 tail: 0
bran_ornot_regfl:11001100110011001100110011001100 ret1_branornot:x bran1_miss:0 ret2_branornot:x bran2_miss:0 head: 0 tail: 0
bran_ornot_regfl:11001100110011001100110011001100 ret1_branornot:x bran1_miss:0 ret2_branornot:x bran2_miss:0 head: 0 tail: 0
bran_ornot_regfl:11001100110011001100110011001100 ret1_branornot:x bran1_miss:0 ret2_branornot:x bran2_miss:0 head: 0 tail: 0
bran_ornot_regfl:11001100110011001100110011001100 ret1_branornot:x bran1_miss:0 ret2_branornot:x bran2_miss:0 head: 0 tail: 0
bran_ornot_regfl:11001100110011001100110011001100 ret1_branornot:x bran1_miss:0 ret2_branornot:x bran2_miss:0 head: 0 tail: 0
$finish called from file "rob_test.v", line 348.
$finish at simulation time                  550
           V C S   S i m u l a t i o n   R e p o r t 
Time: 550
CPU Time:      0.140 seconds;       Data structure size:   0.0Mb
Fri Oct 18 20:30:21 2013
