Chronologic VCS simulator copyright 1991-2011
Contains Synopsys proprietary information.
Compiler version E-2011.03_Full64; Runtime version E-2011.03_Full64;  Oct 23 23:01 2013
$finish called from file "testFU.v", line 239.
$finish at simulation time                 3200
           V C S   S i m u l a t i o n   R e p o r t 
Time: 320000 ps
CPU Time:      0.290 seconds;       Data structure size:   0.0Mb
Wed Oct 23 23:01:56 2013
