Chronologic VCS simulator copyright 1991-2011
Contains Synopsys proprietary information.
Compiler version E-2011.03_Full64; Runtime version E-2011.03_Full64;  Nov  3 00:58 2013
1
1
1
1
1
$finish called from file "test.v", line 47.
$finish at simulation time                   50
           V C S   S i m u l a t i o n   R e p o r t 
Time: 50
CPU Time:      0.140 seconds;       Data structure size:   0.1Mb
Sun Nov  3 00:58:19 2013
