testcase	#vic_hitrate	#dcache_hitrate_total
/btest1.s	0	0
/btest2.s	0	0
/copy.s	0	0
/copy_long.s	0	1
/evens.s	0	0
/evens_long.s	0	0
/fib.s	0	1
/fib_long.s	0	1
/fib_rec.s	0.390654921486021	0.831482190731521
/halt.s	0	0
/insertion.s	0.198675496688742	0.695364238410596
/mult.s	0	0
/mult_no_lsq.s	0	0
/objsort.s	0.0638885402284423	0.412827915149994
/parallel.s	0	0
/parallel_long.s	0	0
/parsort.s	0.0152413209144793	0.48264182895851
/saxpy.s	0	0.0263157894736842
/sort.s	0.171900826446281	0.866115702479339
