testcase	vic_hitrate	icache_hitrate_total	pref_hitrate
/btest1.s	0	0.512437810945274	0.00497512437810945
/btest2.s	0	0.506361323155216	0.00254452926208651
/copy.s	0	0.965116279069767	0
/copy_long.s	0	0.980519480519481	0.00324675324675325
/evens.s	0	0.981818181818182	0
/evens_long.s	0	0.977272727272727	0.00454545454545455
/fib.s	0	0.962962962962963	0.00925925925925926
/fib_long.s	0	0.973684210526316	0.00584795321637427
/fib_rec.s	0.322600243013366	0.999813066641742	0.000140200018693336
/halt.s	0	0.5	0
/insertion.s	0.414239482200647	0.993527508090615	0.00107874865156419
/mult.s	0	0.974093264248705	0.00518134715025907
/mult_no_lsq.s	0	0.968553459119497	0
/objsort.s	0.170967970020505	0.980237573357845	0.0028636074383087
/parallel.s	0	0.974137931034483	0
/parallel_long.s	0.101479915433404	0.985200845665962	0.00211416490486258
/parsort.s	0.000321957501609788	0.998873148744366	0
/saxpy.s	0	0.972222222222222	0
/sort.s	0	0.996816976127321	0.00106100795755968
