ROB#= 4, ROB_head= 2, Distance= 2
ROB#=12, ROB_head=10, Distance= 2
ROB#=20, ROB_head=13, Distance= 7
ROB#=28, ROB_head=19, Distance= 9
ROB#= 4, ROB_head=21, Distance=15
ROB#=12, ROB_head=27, Distance=17
ROB#=20, ROB_head=29, Distance=23
ROB#=28, ROB_head= 5, Distance=23
ROB#= 4, ROB_head=11, Distance=25
ROB#=12, ROB_head=19, Distance=25
ROB#=20, ROB_head=27, Distance=25
ROB#=28, ROB_head= 3, Distance=25
ROB#= 4, ROB_head=11, Distance=25
ROB#=12, ROB_head=19, Distance=25
ROB#=20, ROB_head=27, Distance=25
ROB#=28, ROB_head= 3, Distance=25
