Chronologic VCS simulator copyright 1991-2011
Contains Synopsys proprietary information.
Compiler version E-2011.03_Full64; Runtime version E-2011.03_Full64;  Nov  9 19:40 2013
$finish called from file "test.v", line 98.
$finish at simulation time                  180
           V C S   S i m u l a t i o n   R e p o r t 
Time: 180
CPU Time:      0.270 seconds;       Data structure size:   0.0Mb
Sat Nov  9 19:40:38 2013
