Chronologic VCS simulator copyright 1991-2011
Contains Synopsys proprietary information.
Compiler version E-2011.03_Full64; Runtime version E-2011.03_Full64;  Nov 24 17:58 2013
$finish called from file "test.v", line 296.
$finish at simulation time                  360
           V C S   S i m u l a t i o n   R e p o r t 
Time: 360
CPU Time:      0.260 seconds;       Data structure size:   0.2Mb
Sun Nov 24 17:58:25 2013
