Chronologic VCS simulator copyright 1991-2011
Contains Synopsys proprietary information.
Compiler version E-2011.03_Full64; Runtime version E-2011.03_Full64;  Nov 22 16:43 2013
@@
@@
@@                     0  Asserting System reset......
@@
@@                     0 : System STILL at reset, can't show anything
@@
@@
@@                   100 : System STILL at reset, can't show anything
@@
@@
@@                   200 : System STILL at reset, can't show anything
@@
@@
@@                   300 : System STILL at reset, can't show anything
@@
@@                   360  Deasserting System reset......
@@
@@
@@@ Unified Memory contents hex on left, decimal on right: 
@@@
@@@ mem[    0] = 2ffe0000c3e00021 : 3458201567153356833
@@@ mem[    8] = 0000000000000001 : 1
@@@ mem[   16] = 0000000000000001 : 1
@@@ mem[   24] = 0000000000000002 : 2
@@@ mem[   32] = 0000000000000003 : 3
@@@ mem[   40] = 0000000000000003 : 3
@@@ mem[   48] = 0000000000000003 : 3
@@@ mem[   56] = 0000000000000004 : 4
@@@ mem[   64] = 0000000000000005 : 5
@@@ mem[   72] = 0000000000000005 : 5
@@@ mem[   80] = 0000000000000005 : 5
@@@ mem[   88] = 0000000000000006 : 6
@@@ mem[   96] = 0000000000000007 : 7
@@@ mem[  104] = 0000000000000008 : 8
@@@ mem[  112] = 0000000000000009 : 9
@@@ mem[  120] = 0000000000000009 : 9
@@@ mem[  128] = 0000000000000009 : 9
@@@ mem[  136] = 47ff0405201f0008 : 5187869715814350856
@@@ mem[  144] = 43e5052747ff0406 : 4892322236477670406
@@@ mem[  152] = 47e0040140e21407 : 5179143974906106887
@@@ mem[  160] = a4610008a4410000 : 11844748532076576768
@@@ mem[  168] = f4800002404303a4 : 17618081751941448612
@@@ mem[  176] = b4610000b4410008 : 12997670002592120840
@@@ mem[  184] = 40c0340640211401 : 4665786415406191617
@@@ mem[  192] = f49ffff640c703a4 : 17627088899665232804
@@@ mem[  200] = 40a213a440a03405 : 4657306560834319365
@@@ mem[  208] = 00000555f49fffef : 5866734485487
@@@
@@@
@@                424510 : System halted
@@
@@@ System halted on HALT instruction
@@@
@@
@@  4242 cycles / 1349 instrs = 3.144552 CPI
@@
@@  127230.00 ns total time to execute
@@

@@  x misses / x branchs = 0.0% Miss Rate
@@
@@  x RS_ALU_full @@
@@  x RS_BR_full @@
@@  x RS_MULT_full @@
@@  x RS_MEM_full @@
@@  x ROB_full @@
@@  x BRAT_full @@
@@  x cdb_stall @@
$finish called from file "testbench/testbench.v", line 315.
$finish at simulation time               425510
           V C S   S i m u l a t i o n   R e p o r t 
Time: 42551000 ps
CPU Time:     40.410 seconds;       Data structure size: 122.7Mb
Fri Nov 22 16:44:02 2013
